Chapitre 4 TRAVAUX D’ETUDIANTS 2021 | DATA MINING
…
Sur ce graphique, on observe en premier lieu que le taux de chômage chez les jeunes est bien supérieur à celui des 25-49 ans ou celui des 50 ans et plus. De plus, c’est également celui qui connaît les plus fortes variations négatives comme positives depuis 1975.

Le taux de chômage chez les 25-49 ans et chez les plus de 50 ans est similaire. Cependant, celui des 50 ans et plus reste le plus bas sur toute la période.

4.1.4 Conclusion

L’avantage d’utiliser une API est la mise à jour automatiquement des données.

Sur l’exemple ci-dessous, nous avons le taux de chômage jusqu’au quatrième trimestre 2020. Si dans un an j’exécute de nouveau ce programme, tout se mettra automatiquement à jour, c’est-à-dire que les trimestres de 2021 seront ajoutés au tableau mais aussi au graphique.

Le second avantage de l’utilisation d’une API est la réduction des commandes à passer pour obtenir une information précise. Ici par exemple, sans avoir eu besoin d’ouvrir un navigateur Internet, nous avons obtenu les données INSEE du taux de chômage depuis 1975 en France Métropolitaine.

4.2 Mohadji M.

# A tibble: 197 x 5
   id        Name.fr               Name.en               url            n_series
   <chr>     <chr>                 <chr>                 <chr>             <dbl>
 1 BALANCE-… Balance des paiements Balance of payments   https://www.i…      197
 2 CHOMAGE-… Chômage, taux de chô… Unemployment, unempl… https://www.i…      166
 3 CLIMAT-A… Indicateurs synthéti… Business climate com… https://www.i…        3
 4 CNA-2010… Consommation des mén… Households' consumpt… https://www.i…     2247
 5 CNA-2010… Dépenses de consomma… Final consumption ex… https://www.i…     1391
 6 CNA-2010… Comptes de productio… Production and opera… https://www.i…     2739
 7 CNA-2010… Comptes des secteurs… Institutional sector… https://www.i…     1173
 8 CNA-2010… Dépenses des adminis… General government e… https://www.i…     4400
 9 CNA-2010… Dette et déficit des… Maastricht general g… https://www.i…       72
10 CNA-2010… Emploi intérieur, du… Domestic employment,… https://www.i…      702
# … with 187 more rows

  |                                                                            
  |                                                                      |   0%
  |                                                                            
  |======================================================================| 100%

# A tibble: 192 x 16
   DATE       TIME_PERIOD OBS_VALUE OBS_STATUS OBS_QUAL OBS_TYPE IDBANK FREQ 
   <date>     <chr>           <dbl> <chr>      <chr>    <chr>    <chr>  <chr>
 1 2020-12-01 2020-12         100.  A          DEF      A        01054… M    
 2 2020-11-01 2020-11          96.5 A          DEF      A        01054… M    
 3 2020-10-01 2020-10          98.0 A          DEF      A        01054… M    
 4 2020-09-01 2020-09         100.  A          DEF      A        01054… M    
 5 2020-08-01 2020-08         107.  A          DEF      A        01054… M    
 6 2020-07-01 2020-07          90.5 A          DEF      A        01054… M    
 7 2020-06-01 2020-06          94.8 A          DEF      A        01054… M    
 8 2020-05-01 2020-05          77.6 A          DEF      A        01054… M    
 9 2020-04-01 2020-04          54.2 A          DEF      A        01054… M    
10 2020-03-01 2020-03          81.4 A          DEF      A        01054… M    
# … with 182 more rows, and 8 more variables: TITLE_FR <chr>, TITLE_EN <chr>,
#   LAST_UPDATE <chr>, UNIT_MEASURE <chr>, UNIT_MULT <chr>, REF_AREA <chr>,
#   DECIMALS <chr>, OBS_REV <chr>
…
J’ai essayé de nombreuses API afin d’atterir sur celle de l’INSEE.

Remarque : le nom du tableau porte 6 lettres parce que c’est la 6ème tentative … 

J’ai l’habitude d’utiliser les données INSEE dans le cadre de mon travail car c’est une ressource fiable qui propose de nombreuses études qui nous interessent en tant que cabinet : les données demographiques des années passées, mais aussi les prévisions pour le futur ; les données sur la densité des médecins ; sur les revenus et les dépenses des ménages etc.

Ces types de données nous sont très utiles en guise d’introduction lors de présentations pour le client qui, lui, souvent a une vision assez limitée en la matière.

Par exemple, nous travaillons régulièrement sur les projets médicaux des établissements, c’est-à-dire les plans que les differentes structures de santé établissent pour les 5 ans à venir (obligatoire pour les hôpitaux publics). Dans ce cas, bien connaître le territoire sur lequel opère l’établissement est crucial : la population, le taux de natalité, le poids de personnes 75+, le nombre de médecins sur le territoire etc.

Aujourd’hui je me suis interessée precisement au nombre de médecins, généralistes comme specialistes, en Île-de-France. J’ai besoin de connaître le chiffre absolu, pour le rapporter ensuite à la population de l’Île de France, mais aussi son évolution ces dernières années, pour, le cas écheant, degager et essayer d’expliquer la tendance et faire des prévision pour le futur.

4.3.2 Création d’un tableau

# A tibble: 197 x 5
   id        Name.fr               Name.en               url            n_series
   <chr>     <chr>                 <chr>                 <chr>             <dbl>
 1 BALANCE-… Balance des paiements Balance of payments   https://www.i…      197
 2 CHOMAGE-… Chômage, taux de chô… Unemployment, unempl… https://www.i…      166
 3 CLIMAT-A… Indicateurs synthéti… Business climate com… https://www.i…        3
 4 CNA-2010… Consommation des mén… Households' consumpt… https://www.i…     2247
 5 CNA-2010… Dépenses de consomma… Final consumption ex… https://www.i…     1391
 6 CNA-2010… Comptes de productio… Production and opera… https://www.i…     2739
 7 CNA-2010… Comptes des secteurs… Institutional sector… https://www.i…     1173
 8 CNA-2010… Dépenses des adminis… General government e… https://www.i…     4400
 9 CNA-2010… Dette et déficit des… Maastricht general g… https://www.i…       72
10 CNA-2010… Emploi intérieur, du… Domestic employment,… https://www.i…      702
# … with 187 more rows
…
Sélection des colonnes qui nous intérèssent.

Nous avons la population et la surface de chaque pays. Créeons la variable Densité grâce à la formule suivante.

    Min.  1st Qu.   Median     Mean  3rd Qu.     Max.     NA's 
    0.00    30.35    81.84   414.34   202.26 21636.67       10 

Nous avons la répartition en quartile de la densité de la population pour tous les pays. Nous voulons regrouper ces valeurs en catégories. Nous créeons donc la variable qualitative DensPop2 qui indiquera le niveau de densité du pays.

4.4.2 Création d’un tableau

Nous souhaitons obsever pour chaque pays d’Afrique (uniquement), quel est le niveau de densité par pays. Puis on enregistre le tableau.

# A tibble: 60 x 2
   name                           DensPop2           
   <chr>                          <fct>              
 1 Algeria                        Très faible densité
 2 Angola                         Très faible densité
 3 Benin                          Forte densité      
 4 Botswana                       Très faible densité
 5 British Indian Ocean Territory Faible densité     
 6 Burkina Faso                   Faible densité     
 7 Burundi                        Forte densité      
 8 Cameroon                       Faible densité     
 9 Cabo Verde                     Forte densité      
10 Central African Republic       Très faible densité
# … with 50 more rows
…
